^C:\USERS\MATAN\DOCUMENTS\PRIVILEGEESCALATION\CVES\WINDOWSPERUNNER\BITSARBITRARYFILEMOVE-MASTER\BITSARBITRARYFILEMOVE\BITSARBITRARYFILEMOVE.CPP|C:\USERS\MATAN\DOCUMENTS\PRIVILEGEESCALATION\CVES\WINDOWSPERUNNER\BITSARBITRARYFILEMOVE-MASTER\BITSARBITRARYFILEMOVE\CBITSCOM.CPP
C:\USERS\MATAN\DOCUMENTS\PRIVILEGEESCALATION\CVES\WINDOWSPERUNNER\BITSARBITRARYFILEMOVE-MASTER\BITSARBITRARYFILEMOVE\X64\DEBUG\BITSARBITRARYFILEMOVE.PDB
C:\USERS\MATAN\DOCUMENTS\PRIVILEGEESCALATION\CVES\WINDOWSPERUNNER\BITSARBITRARYFILEMOVE-MASTER\BITSARBITRARYFILEMOVE\X64\DEBUG\BITSARBITRARYFILEMOVE.IDB
C:\USERS\MATAN\DOCUMENTS\PRIVILEGEESCALATION\CVES\WINDOWSPERUNNER\BITSARBITRARYFILEMOVE-MASTER\BITSARBITRARYFILEMOVE\X64\DEBUG\CBITSCOM.OBJ
C:\USERS\MATAN\DOCUMENTS\PRIVILEGEESCALATION\CVES\WINDOWSPERUNNER\BITSARBITRARYFILEMOVE-MASTER\BITSARBITRARYFILEMOVE\X64\DEBUG\BITSARBITRARYFILEMOVE.OBJ
^C:\USERS\MATAN\DOCUMENTS\PRIVILEGEESCALATION\CVES\WINDOWSPERUNNER\BITSARBITRARYFILEMOVE-MASTER\BITSARBITRARYFILEMOVE\CBITSCOM.CPP
C:\USERS\MATAN\DOCUMENTS\PRIVILEGEESCALATION\CVES\WINDOWSPERUNNER\BITSARBITRARYFILEMOVE-MASTER\BITSARBITRARYFILEMOVE\X64\DEBUG\BITSARBITRARYFILEMOVE.PDB
^C:\USERS\MATAN\DOCUMENTS\PRIVILEGEESCALATION\CVES\WINDOWSPERUNNER\BITSARBITRARYFILEMOVE-MASTER\BITSARBITRARYFILEMOVE\BITSARBITRARYFILEMOVE.CPP
C:\USERS\MATAN\DOCUMENTS\PRIVILEGEESCALATION\CVES\WINDOWSPERUNNER\BITSARBITRARYFILEMOVE-MASTER\BITSARBITRARYFILEMOVE\X64\DEBUG\BITSARBITRARYFILEMOVE.PDB
C:\USERS\MATAN\DOCUMENTS\PRIVILEGEESCALATION\CVES\WINDOWSPERUNNER\BITSARBITRARYFILEMOVE-MASTER\BITSARBITRARYFILEMOVE\X64\DEBUG\BITSARBITRARYFILEMOVE.IDB
C:\USERS\MATAN\DOCUMENTS\PRIVILEGEESCALATION\CVES\WINDOWSPERUNNER\BITSARBITRARYFILEMOVE-MASTER\BITSARBITRARYFILEMOVE\X64\DEBUG\BITSARBITRARYFILEMOVE.OBJ
