^D:\WORK\WINDOWSPERUNNER\CREATEADMINUSERDLL\CREATEADMINUSERDLL\PCH.CPP
D:\WORK\WINDOWSPERUNNER\CREATEADMINUSERDLL\CREATEADMINUSERDLL\X64\DEBUG\CREATEADMINUSERDLL.PCH
D:\WORK\WINDOWSPERUNNER\CREATEADMINUSERDLL\CREATEADMINUSERDLL\X64\DEBUG\VC142.PDB
D:\WORK\WINDOWSPERUNNER\CREATEADMINUSERDLL\CREATEADMINUSERDLL\X64\DEBUG\VC142.IDB
D:\WORK\WINDOWSPERUNNER\CREATEADMINUSERDLL\CREATEADMINUSERDLL\X64\DEBUG\PCH.OBJ
^D:\WORK\WINDOWSPERUNNER\CREATEADMINUSERDLL\CREATEADMINUSERDLL\DLLMAIN.CPP
D:\WORK\WINDOWSPERUNNER\CREATEADMINUSERDLL\CREATEADMINUSERDLL\X64\DEBUG\VC142.PDB
D:\WORK\WINDOWSPERUNNER\CREATEADMINUSERDLL\CREATEADMINUSERDLL\X64\DEBUG\VC142.IDB
D:\WORK\WINDOWSPERUNNER\CREATEADMINUSERDLL\CREATEADMINUSERDLL\X64\DEBUG\DLLMAIN.OBJ
