^D:\WORK\WINDOWSPERUNNER\CREATEADMINUSERDLL\CREATEADMINUSERDLL\PCH.CPP
/c /Zi /nologo /W3 /WX- /diagnostics:column /sdl /O2 /Oi /Oy- /GL /D WIN32 /D NDEBUG /D CREATEADMINUSERDLL_EXPORTS /D _WINDOWS /D _USRDLL /D _WINDLL /D _UNICODE /D UNICODE /Gm- /EHsc /MD /GS /Gy /fp:precise /permissive- /Zc:wchar_t /Zc:forScope /Zc:inline /Yc"pch.h" /Fp"RELEASE\CREATEADMINUSERDLL.PCH" /Fo"RELEASE\\" /Fd"RELEASE\VC142.PDB" /external:env:EXTERNAL_INCLUDE /external:W3 /Gd /TP /analyze- /FC D:\WORK\WINDOWSPERUNNER\CREATEADMINUSERDLL\CREATEADMINUSERDLL\PCH.CPP
^D:\WORK\WINDOWSPERUNNER\CREATEADMINUSERDLL\CREATEADMINUSERDLL\DLLMAIN.CPP
/c /Zi /nologo /W3 /WX- /diagnostics:column /sdl /O2 /Oi /Oy- /GL /D WIN32 /D NDEBUG /D CREATEADMINUSERDLL_EXPORTS /D _WINDOWS /D _USRDLL /D _WINDLL /D _UNICODE /D UNICODE /Gm- /EHsc /MD /GS /Gy /fp:precise /permissive- /Zc:wchar_t /Zc:forScope /Zc:inline /Yu"pch.h" /Fp"RELEASE\CREATEADMINUSERDLL.PCH" /Fo"RELEASE\\" /Fd"RELEASE\VC142.PDB" /external:env:EXTERNAL_INCLUDE /external:W3 /Gd /TP /analyze- /FC D:\WORK\WINDOWSPERUNNER\CREATEADMINUSERDLL\CREATEADMINUSERDLL\DLLMAIN.CPP
