^D:\WORK\WINDOWSPERUNNER\CREATEADMINUSERDLL\CREATEADMINUSERDLL\RELEASE\DLLMAIN.OBJ|D:\WORK\WINDOWSPERUNNER\CREATEADMINUSERDLL\CREATEADMINUSERDLL\RELEASE\PCH.OBJ
D:\WORK\WINDOWSPERUNNER\CREATEADMINUSERDLL\RELEASE\CREATEADMINUSERDLL.DLL
D:\WORK\WINDOWSPERUNNER\CREATEADMINUSERDLL\CREATEADMINUSERDLL\RELEASE\CREATEADMINUSERDLL.IPDB
D:\WORK\WINDOWSPERUNNER\CREATEADMINUSERDLL\CREATEADMINUSERDLL\RELEASE\CREATEADMINUSERDLL.IOBJ
D:\WORK\WINDOWSPERUNNER\CREATEADMINUSERDLL\RELEASE\CREATEADMINUSERDLL.PDB
