^D:\WORK\WINDOWSPERUNNER\CREATEADMINUSERDLL\CREATEADMINUSERDLL\DEBUG\DLLMAIN.OBJ|D:\WORK\WINDOWSPERUNNER\CREATEADMINUSERDLL\CREATEADMINUSERDLL\DEBUG\PCH.OBJ
/OUT:"D:\WORK\WINDOWSPERUNNER\CREATEADMINUSERDLL\DEBUG\CREATEADMINUSERDLL.DLL" /INCREMENTAL /ILK:"DEBUG\CREATEADMINUSERDLL.ILK" /NOLOGO KERNEL32.LIB USER32.LIB GDI32.LIB WINSPOOL.LIB COMDLG32.LIB ADVAPI32.LIB SHELL32.LIB OLE32.LIB OLEAUT32.LIB UUID.LIB ODBC32.LIB ODBCCP32.LIB /MANIFEST /MANIFESTUAC:NO /manifest:embed /DEBUG /PDB:"D:\WORK\WINDOWSPERUNNER\CREATEADMINUSERDLL\DEBUG\CREATEADMINUSERDLL.PDB" /SUBSYSTEM:WINDOWS /TLBID:1 /DYNAMICBASE /NXCOMPAT /IMPLIB:"D:\WORK\WINDOWSPERUNNER\CREATEADMINUSERDLL\DEBUG\CREATEADMINUSERDLL.LIB" /MACHINE:X86 /DLL DEBUG\DLLMAIN.OBJ
DEBUG\PCH.OBJ
